                           《Maya白金手册 建模》

   本书是《火星人——Maya 白金手册》中的第2册，即建模篇，内容包括Maya
建模基础、NURBS建模、多边形建模、Subdiv（细分）建模，以及与建模相关的
各个菜单命令。

   第1章 Maya建模基础 主要讲解多边形建模、NURBS建模和Subdiv（细分）建模
的概念及其特点，并以一个酒杯模型的制作开启学习之旅。

   第2章 创建NURBS基本对象 主要讲解NURBS曲线及曲面的创建。

   第3章 编辑NURBS曲线 主要讲解各NURBS曲线编辑工具的应用及参数说明。

   第4章 NURBS曲面创建方式 主要讲解各NURBS曲面创建工具的应用及参数说明。

   第5章 创建多边形几何体 主要讲解多边形创建工具的应用及参数说明。

   第6章 多边形四大组件 主要讲解Vertex（顶点）、Edge（边）、Face（面）、
UV（UV点）和Vertex Face（顶点面）等编辑模式下各个命令的应用及参数说明。

   第7章 Mesh（网格）菜单 主要讲解Mesh（网格）菜单中各命令的应用及参数说明。

   第8章 Edit Mesh（编辑网格） 主要讲解Edit Mesh（编辑网格）菜单中各命令
的应用及参数说明。

   第9章 Proxy（代理）对象 主要讲解Proxy（代理）菜单中各命令的应用及参数说明。

   第10章 多边形Normals（法线） 主要讲解Normals（法线）菜单中各命令的应用及
参数说明。

   第11章 Color（颜色）菜单 主要讲解Color（颜色）菜单中常用命令的应用及参数说明。

   第12章 Create Uvs（创建UV点）菜单 主要讲解Create Uvs（创建UV点）菜单中常
用命令的应用及参数说明。

   第13 章 Edit Uvs（编辑Uvs）菜单 主要讲解Edit Uvs（编辑Uvs）菜单中常用命令
的应用及参数说明。
   
   第14 章 Subdiv（细分）建模 主要讲解Subdiv（细分）建模工具及编辑工具的使用
方法。

   由于编写水平有限，书中如有不妥之处，恳请广大读者批评指正。如果读者在阅读本
书的过程中遇到问题，可以登录火星时代网站http://www.hxsd.com 的“论坛”或者
“火星图书”栏目提出问题，将会有火星时代老师及热心的专业人士为您解答。我们
的客服QQ 号码是896641381。

   在学习本书之前，请确保您的计算机已安装了Maya 2011。

   本套丛书适合使用Maya 2008、Maya 2009、Maya 2010、Maya 2011 和Maya 2012 
版本的读者朋友学习。

   火星时代祝您在学习的道路上百尺竿头，更进一步！



*******************************************************************************
  
北京火星时代科技有限公司出品
网址：http://www.hxsd.com

光盘策划：火星时代
文本编著：火星时代
软件开发：火星时代
出    版：人民邮电出版社
责任编辑信箱：guofaming@ptpress.com.cn
人民邮电出版社网址：http://www.ptpress.com.cn

    光盘应与配套手册共同使用，正版用户可以通过网站或电话获得相应的技术支持（仅指
本教学产品的使用问题，不包括应用软件的使用技术解答）。需要本套教材的读者请在当地
新华书店和科技书店购买，或者按上面提供的地址进行邮购。

*******************************************************************************
                            最新图书推荐

《ZBrush雕刻大师火星课堂》
《火星人—Maya 2011大风暴》
《ZBrush次世代角色建模火星课堂》


*******************************************************************************
                                      声 明

    如果您购买的产品没有配带相应的文字手册，说明是盗版产品，在使用时脱离了文字手
册将无法保障正常使用，我们也不承担盗版产品有可能对系统造成的损害。对于盗版产品的
用户我们不会提供任何技术支持，希望您能购买正版产品。


*******************************************************************************
                                    商标声明

   光盘中引用之商标与产品分别属于其原合法注册公司所有，纯属介绍之用，绝无任何侵
害之意。


*******************************************************************************
                                      注 意

     在学习本书之前，请确保您的计算机已安装了Maya2011。
    如果希望全屏观看视频教学，建议将显示器分辨率调整为1680×1048。
   为保证程序运行流畅，建议将随书配带的光盘资料拷贝到硬盘中再运行。
