/* XPM */
static char *asHelp[] = {
/* columns rows colors chars-per-pixel */
"32 32 58 1",
"  c #6F6F6F",
". c #727272",
"X c #757575",
"o c #787878",
"O c #797979",
"+ c #7C7C7C",
"@ c #9D7C59",
"# c #CF4F4F",
"$ c #A3825F",
"% c #B49471",
"& c #B59471",
"* c #818181",
"= c #828282",
"- c #838383",
"; c #888888",
": c #8A8A8A",
"> c #8C8C8C",
", c #8D8D8D",
"< c #909090",
"1 c #929292",
"2 c #959595",
"3 c #969696",
"4 c #999999",
"5 c #9F9F9F",
"6 c #A0A0A0",
"7 c #A6A6A6",
"8 c #A8A8A8",
"9 c #A9A9A9",
"0 c #ACACAC",
"q c #B0B0B0",
"w c #B2B2B2",
"e c gray70",
"r c #B8B8B8",
"t c #BCBCBC",
"y c #BDBDBD",
"u c #BFBFBF",
"i c #C1C1C1",
"p c #C5C5C5",
"a c #CCCCCC",
"s c #CECECE",
"d c #CFCFCF",
"f c #D2D2D2",
"g c #D3D3D3",
"h c #D8D8D8",
"j c #D9D9D9",
"k c #DADADA",
"l c #DCDCDC",
"z c #DEDEDE",
"x c #E2E2E2",
"c c #E3E3E3",
"v c #E5E5E5",
"b c #E6E6E6",
"n c #ECECEC",
"m c #F2F2F2",
"M c #F5F5F5",
"N c #F6F6F6",
"B c #F8F8F8",
"V c gray100",
/* pixels */
"################################",
"66666666666666666666666666666666",
"66666666666666666666666666666666",
"60j6666666666666660n666666666666",
"6Bv666666666666666vV666666666666",
"6Vv3=3666666666666vV:o:666666666",
"6Vz  =666666666666vV  o666666666",
"6Vj  +666666666666vV   666666666",
"6Vj  +666666666655vV   566666666",
"6Vj  +666666656655vV   566666666",
"6Vj qMn7666sVv7566vV   tgeBn7666",
"6VjqVVVs66tVVVv566vV   VjnVVj666",
"6VxMtqVso:mBtxV3,6nV   VvBpBV=:6",
"6VVj +Vj :Vf-;Vt ,vV   VVq tV3 3",
"6VV:  Vj 0V8  Mj +vV   VV= 3Ve =",
"6Vx   Vj tV;  vn  xV   VM  =Vp  ",
"5Vj   Vj pV:==vV  zV   Vj   Vs  ",
"5Vj   Vj jVVVVVV  zV   Vj   Vj  ",
"5Vj  XVj jVVVVVV  jV   Vj   Vj  ",
"6Vj  +Vg jV       jV   Vg  +Vj  ",
"6Vj  +Vj sVo      jV   Vn  :Vp  ",
"6Vj  +Vj tV;      gV   VVo 6Vq  ",
"6Vg  +Vj 6Vq  ;   zV   VV8 iV6  ",
"6Vj  +Vj oVBeeVt55vV   VMMpMVo  ",
"6Vj  +Vj  iVVVVq36vV   VjvVVg   ",
"6Vj  oVj  +pVn7= -vV   Vj=nj;   ",
"65   +5   +       ,+   Vg       ",
"66   +5   +=      3+   Vj      -",
"66   +6   +5=    -6+   Vj      3",
"66- +,6- +,63- o;66,+ =Vj  +X+,6",
"66666666666666666666666Vj  +6666",
"&&&&&&&&&&&&&&&&&&&&&&&&@@@$&&&&"
};
