/* XPM */
static char *asUI[] = {
/* columns rows colors chars-per-pixel */
"32 32 43 1",
"  c #6F6F6F",
". c #727272",
"X c #757575",
"o c #787878",
"O c #797979",
"+ c #7F7F7F",
"@ c #CF4F4F",
"# c #B59471",
"$ c #828282",
"% c #838383",
"& c #8A8A8A",
"* c #8B8B8B",
"= c #8C8C8C",
"- c #8D8D8D",
"; c #929292",
": c #939393",
"> c #959595",
", c #969696",
"< c #999999",
"1 c #9A9A9A",
"2 c #9F9F9F",
"3 c #A0A0A0",
"4 c #A8A8A8",
"5 c #A9A9A9",
"6 c #ACACAC",
"7 c #B2B2B2",
"8 c gray70",
"9 c #B8B8B8",
"0 c #B9B9B9",
"q c #C5C5C5",
"w c #CBCBCB",
"e c #CECECE",
"r c #D2D2D2",
"t c #D8D8D8",
"y c #E2E2E2",
"u c #E6E6E6",
"i c #E9E9E9",
"p c #EBEBEB",
"a c #ECECEC",
"s c #F2F2F2",
"d c #F5F5F5",
"f c #F8F8F8",
"g c gray100",
/* pixels */
"@@@@@@@@@@@@@@@@@@@@@@@@@@@@@@@@",
"33333333333333333333333333333333",
"33333333333333333333333333333333",
"33333333333333333333333333333333",
"33333333333333333338ggs333333333",
"33333333333333333338ggg233333333",
"33333333333333333338gga X&333333",
"33333333333333333333>    X333333",
"33333333333333333333>     233333",
"33333333333333333333>    X333333",
"33333330gs3333sg0333sg> X&333333",
"33333330gg2333gg0233gg0333333333",
"33333330gg X&3gg1 %3gg1 %3333333",
"33333330gg  X3gg>  ;gg>  ;333333",
"33333330gg   2gg>  ;gg>  ;333333",
"33333330gg   2gg>  ;gg>  ;333333",
"33333330gg   2gg>  ;gg>  ;333333",
"33333330gg   2gg>  ;gg>  ;333333",
"33333330gg   2gg>  ;gg>  ;333333",
"33333330gg   2gg>  ;gg>  ;333333",
"33333330gg   3fg>  ;gg>  ;333333",
"33333330gg   rgg>  ;gg>  ;333333",
"33333330gg  *ffg>  ;gg>  ;333333",
"33333336gg8>ieig1  ;gg>  ;333333",
"33333333igggt2ug>  ;gg>  ;333333",
"333333334ydqO&e4   ;sg>  ;333333",
"333333331          ;3    ;333333",
"333333333O     O   ;2    ;333333",
"333333333*     %  %33X   ;333333",
"3333333333*O %>;+*333&X %3333333",
"33333333333333333333333333333333",
"################################"
};
