/* XPM */
static char * image_name[]={
"19 19 4 2",
"  	c #EFDF84",
". 	c #EEE8AA",
"X 	c #EEDD82",
"o 	c #BFBFBF",
"    . . . . . . . . . . X         o o ",
"    . . . . . . . . .   X         o o ",
"    . . . . . . . . .   X         o o ",
"X   . . . . . . . . .   X         o o ",
"X . . . . . . . . . . .           o o ",
"  . . . . . . . . . . . .   X     o o ",
"  . . . . . . . . . . . . .     X o o ",
"  . . . . . . . . . . . . . . . . o o ",
"  . . . . . . . . . . . . . . . . o o ",
"  . . . . . . . . . . . . . . . . o o ",
". . . . . . . . . . . . . . . . . o o ",
". . . . . . . . . . . . . . . . . o o ",
". . . . . . . . . . . . . . . . . o o ",
". . . . . . . . . . . . . . . . . o o ",
". . . . . . . . . . . . . . . . . o o ",
"X X X X X X X X X X X X X X X X X o o ",
"                                  o o ",
"o o o o o o o o o o o o o o o o o o o ",
"o o o o o o o o o o o o o o o o o o o "
};
