/* XPM */
static char * image_name[]={
"14 13 4 2",
"  	c #EEDD82",
". 	c #EFDF84",
"X 	c #BFBFBF",
"o 	c #EEE8AA",
"  . . . . . . . . . . . X X ",
"o .   . . . . . . . . . X X ",
"o o o .           . . . X X ",
"o o o o o o o . . . . . X X ",
"o o o o o o o o o o o o X X ",
"o o o o o o o o o o o o X X ",
"o o o o o o o o o o o o X X ",
"o o o o o o o o o o o o X X ",
"o o o o o o o o o o o o X X ",
"o o o o o o o o o o o o X X ",
"o o o o o o o o o o o o X X ",
"X X X X X X X X X X X X X X ",
"X X X X X X X X X X X X X X "
};
