/* XPM */
static char * image_name[]={
"38 18 4 2",
"  	c #F08080",
". 	c #DEB887",
"X 	c #BFBFBF",
"o 	c #FF7256",
"      . . . . . . . . . . . . . . . . . . . . . . . . . . . . . .       X X ",
"      . . . . . . . . . . . . . . . . . . . . . . . . . . . . . . o     X X ",
"    o . . . . . . . . . . . . . . . . . . . . . . . . . . . . . . o     X X ",
"    o . . . . . . . . . . . . . . . . . . . . . . . . . . . . . . o     X X ",
"    o . . . . . . . . . . . . . . . . . . . . . . . . . . . . . . o     X X ",
"    o . . . . . . . . . . . . . . . . . . . . . . . . . . . . . . o     X X ",
"    o . . . . . . . . . . . . . . . . . . . . . . . . . . . . . . o     X X ",
"    o . . . . . . . . . . . . . . . . . . . . . . . . . . . . . . o     X X ",
"    o . . . . . . . . . . . . . . . . . . . . . . . . . . . . . . o     X X ",
"    o . . . . . . . . . . . . . . . . . . . . . . . . . . . . . . o     X X ",
"      . . . . . . . . . . . . . . . . . . . . . . . . . . . . . .       X X ",
"  o   . . . . . . . . . . . . . . . . . . . . . . . . . . . . . .   o   X X ",
"  o . . . . . . . . . . . . . . . . . . . . . . . . . . . . . . . . o   X X ",
"  o . . . . . . . . . . . . . . . . . . . . . . . . . . . . . . . . o   X X ",
"  o . . . . . . . . . . . . . . . . . . . . . . . . . . . . . . . . o   X X ",
"    . . . . . . . . . . . . . . . . . . . . . . . . . . . . . . . .     X X ",
"X X X X X X X X X X X X X X X X X X X X X X X X X X X X X X X X X X X X X X ",
"X X X X X X X X X X X X X X X X X X X X X X X X X X X X X X X X X X X X X X "
};
