/* XPM */
static char * image_name[]={
"34 20 4 2",
"  	c #FF7256",
". 	c #F08080",
"X 	c #BFBFBF",
"o 	c #DEB887",
"        . . . . . . . . . . . . . . . . . . . . . . . . . . . . X X ",
". . . . . . . .                                       . . . . . X X ",
"o o o o o o o o o o o o o o o o o o o o o . . . . . . . . . . . X X ",
"o o o o o o o o o o o o o o o o o o o o o o o o o o o o o o o o X X ",
"o o o o o o o o o o o o o o o o o o o o o o o o o o o o o o o o X X ",
"o o o o o o o o o o o o o o o o o o o o o o o o o o o o o o o o X X ",
"o o o o o o o o o o o o o o o o o o o o o o o o o o o o o o o o X X ",
"o o o o o o o o o o o o o o o o o o o o o o o o o o o o o o o o X X ",
"o o o o o o o o o o o o o o o o o o o o o o o o o o o o o o o o X X ",
"o o o o o o o o o o o o o o o o o o o o o o o o o o o o o o o o X X ",
"o o o o o o o o o o o o o o o o o o o o o o o o o o o o o o o o X X ",
"o o o o o o o o o o o o o o o o o o o o o o o o o o o o o o o o X X ",
"o o o o o o o o o o o o o o o o o o o o o o o o o o o o o o o o X X ",
"o o o o o o o o o o o o o o o o o o o o o o o o o o o . . . . . X X ",
"o o o o o o o o o o o o o o o o o . . . . .                     X X ",
"o o o o o o o o o . . . . .             . . . . . . . . . . . . X X ",
"o o . . . . .           . . . . . . . . . . . . . . . . . . . . X X ",
"          . . . . . . . . . . . . . . . . . . . . . . . . . . . X X ",
"X X X X X X X X X X X X X X X X X X X X X X X X X X X X X X X X X X ",
"X X X X X X X X X X X X X X X X X X X X X X X X X X X X X X X X X X "
};
