/* XPM */
static char * image_name[]={
"20 41 31 2",
"  	c #FFFFFF",
". 	c #F5F5F5",
"X 	c #8C8C8C",
"o 	c #BFBFBF",
"O 	c #F2F2F2",
"+ 	c #8A8A8A",
"@ 	c #FCFCFC",
"# 	c #FAFAFA",
"$ 	c #EDEDED",
"% 	c #878787",
"& 	c #E8E8E8",
"* 	c #DEDEDE",
"= 	c #D6D6D6",
"- 	c #CFCFCF",
"; 	c #C7C7C7",
": 	c #BDBDBD",
"> 	c #8F8F8F",
", 	c #B0B0B0",
"< 	c #919191",
"1 	c #A6A6A6",
"2 	c #969696",
"3 	c #9C9C9C",
"4 	c #999999",
"5 	c #949494",
"6 	c #F0F0F0",
"7 	c #EBEBEB",
"8 	c #DCDCDC",
"9 	c #C2C2C2",
"0 	c #D4D4D4",
"q 	c #B3B3B3",
"w 	c #A8A8A8",
"                                . X o o ",
"                                O + o o ",
"@                           # # O + o o ",
"                  @             $ % o o ",
"    @ @             @     @ @   & % o o ",
"      @                         & % o o ",
"        #                       * % o o ",
"      @           #             = % o o ",
"                                = % o o ",
"#       @ #       @             = % o o ",
"@ @       @                   @ = % o o ",
"      @ @           @   @       = % o o ",
"                                = % o o ",
"@   @ #                         = % o o ",
"                @     @     #   = % o o ",
"                                = % o o ",
"#   @               @         @ - + o o ",
"        #     @           @     ; + o o ",
"                                ; + o o ",
"#       @                     @ ; + o o ",
"                            #   : > o o ",
"          @     @               , < o o ",
"        #                       1 2 o o ",
"      @   @                   @ 3 4 o o ",
"#     @         @             @ 5 3 o o ",
"                  @           # > 3 o o ",
"#                   @         . + 3 o o ",
"      @                       O + 3 o o ",
"#   @                         O + 3 o o ",
"6         @                   O + 3 o o ",
"6         @                   . X 3 o o ",
"6         @ #               # . + 3 o o ",
"7             @               $ % 3 o o ",
"&             @     @ # @ @ @ & % 3 o o ",
"7               @     @       * % 3 o o ",
"& #                           - + 3 o o ",
"8       #       @ #   @     # 9 X 3 o o ",
"0                   @ #       q < 3 o o ",
"0   @       @                 w 2 3 o o ",
"o o o o o o o o o o o o o o o o o o o o ",
"o o o o o o o o o o o o o o o o o o o o "
};
