/* XPM */
static char * image_name[]={
"8 17 2 2",
"  	c #EEE8AA",
". 	c #BFBFBF",
"            . . ",
"            . . ",
"            . . ",
"            . . ",
"            . . ",
"            . . ",
"            . . ",
"            . . ",
"            . . ",
"            . . ",
"            . . ",
"            . . ",
"            . . ",
"            . . ",
"            . . ",
". . . . . . . . ",
". . . . . . . . "
};
