/* XPM */
static char * image_name[]={
"32 15 4 2",
"  	c #EFDF84",
". 	c #BFBFBF",
"X 	c #EEDD82",
"o 	c #EEE8AA",
"                                                            . . ",
"                X X X X X X                                 . . ",
"o o o o o o o o o o o o o         X X X X X X X X X         . . ",
"o o o o o o o o o o o o o o o o o o o o o o o o o o o o o o . . ",
"o o o o o o o o o o o o o o o o o o o o o o o o o o o o o o . . ",
"o o o o o o o o o o o o o o o o o o o o o o o o o o o o o o . . ",
"o o o o o o o o o o o o o o o o o o o o o o o o o o o o o o . . ",
"o o o o o o o o o o o o o o o o o o o o o o o o o o o o o o . . ",
"o o o o o o o o o o o o o o o o o o o o o o o o o o o o o o . . ",
"o o o o o o o o o o o o o o o o o o o o o o o o o o o o o o . . ",
"o o o o o o o o o o o o o o o o o o o o o o o o o o o o o   . . ",
"o o o o o o o o o o o o o o o o o o o o o o o o o o o o   X . . ",
"                  X X X X X X X X X X X X X X X X X X X X   . . ",
". . . . . . . . . . . . . . . . . . . . . . . . . . . . . . . . ",
". . . . . . . . . . . . . . . . . . . . . . . . . . . . . . . . "
};
