/* XPM */
static char * image_name[]={
"18 31 27 2",
"  	c #A1A1A1",
". 	c #FFFFFF",
"X 	c #FAFAFA",
"o 	c #8C8C8C",
"O 	c #BFBFBF",
"+ 	c #9C9C9C",
"@ 	c #FCFCFC",
"# 	c #F5F5F5",
"$ 	c #8A8A8A",
"% 	c #969696",
"& 	c #F0F0F0",
"* 	c #878787",
"= 	c #949494",
"- 	c #E8E8E8",
"; 	c #999999",
": 	c #DEDEDE",
"> 	c #D4D4D4",
", 	c #CCCCCC",
"< 	c #A6A6A6",
"1 	c #C2C2C2",
"2 	c #B3B3B3",
"3 	c #8F8F8F",
"4 	c #ABABAB",
"5 	c #919191",
"6 	c #EBEBEB",
"7 	c #858585",
"8 	c #ADADAD",
"  . . . . . . . . . . . . . X o O O ",
"+ . . . . . . @ . . . . . . # $ O O ",
"% . @ X . . . . @ . . . . . & * O O ",
"= . . @ . . . . . . . . . . - * O O ",
"; . . @ . . . . . . . . . . : * O O ",
"; . @ X . . . . . . . . . @ > * O O ",
"+ . . . . . . . . @ . . . . , $ O O ",
"< . . . . . . . @ . . . @ . 1 o O O ",
"< . . . . . . . . . . . . . 2 3 O O ",
"4 . . @ . . @ . . . . . . . 4 = O O ",
"2 . . @ . . @ . . X . @ . . < % O O ",
"2 . . @ . . . . . . @ . . . < % O O ",
"2 X . . . . . . . . . . . . < % O O ",
"2 . @ X . . . . @ . . . . . < % O O ",
"4 . . . . @ . . . . . . . . + ; O O ",
"< . @ X . . @ . . . . . . . ; + O O ",
"< . . . . . @ . . . . . . @ ; + O O ",
"< . . . . . . . . . . . @ . ; + O O ",
"< . . . . . . . . . . . . @ ; + O O ",
"< . . . . @ . . . . . @ . . ; + O O ",
"  . . . . . . . @ . . . . @ ; + O O ",
"; . . . . . . . @ . . . . @ ; + O O ",
"; . . @ . . . . . . @ . . . ; + O O ",
"; X . . . . . . . . . . . @ ; + O O ",
"; X . . . @ X . . . . . . X 3 + O O ",
"5 X . . . . . @ X . . . . 6 7 + O O ",
"o X . . . . . . . X . . . , $ + O O ",
"$ & . . . . . . . . . . . 8 3 + O O ",
"* 6 . . . . @ . @ . . . X = + + O O ",
"O O O O O O O O O O O O O O O O O O ",
"O O O O O O O O O O O O O O O O O O "
};
