/* XPM */
static char * image_name[]={
"32 15 25 2",
"  	c #8F8F8F",
". 	c #919191",
"X 	c #949494",
"o 	c #999999",
"O 	c #9C9C9C",
"+ 	c #BFBFBF",
"@ 	c #B5B5B5",
"# 	c #B3B3B3",
"$ 	c #ABABAB",
"% 	c #A6A6A6",
"& 	c #8C8C8C",
"* 	c #8A8A8A",
"= 	c #878787",
"- 	c #FFFFFF",
"; 	c #FAFAFA",
": 	c #FCFCFC",
"> 	c #F2F2F2",
", 	c #EDEDED",
"< 	c #E8E8E8",
"1 	c #E3E3E3",
"2 	c #CCCCCC",
"3 	c #B0B0B0",
"4 	c #A3A3A3",
"5 	c #F5F5F5",
"6 	c #F7F7F7",
"    . X o o O O O O O O O O O O O O O O O O O O O O O O O O + + ",
"@ @ # $ % O o . & * * = = * . o O O O O O O O O O O O O o X + + ",
"- - - - ; - : - ; > , < 1 2 3 O   = = * * * * * * & . o 4 $ + + ",
"- - - - - - - - - - - - - - - : ; < 1 > > > > > > 5 - - - - + + ",
"- - - - - - : - - - - - - - - - - - - - - - : - - : ; - - - + + ",
"- - - - - - - - - - - - - - - - - - - - - - - - ; - - - - - + + ",
"- - - - - - - - - - - - - - - - - - - - - - - - - - - - - - + + ",
"- : - - - - - - - - : - - : - - - - - - - - - - : - - - : : + + ",
"- - : - - - - - - - - - - : - - - - - - - : - - - - - - - - + + ",
"- - - - - - - - - - - - - : - - - - - - - - - - - - : - - : + + ",
"- - - - : - - - - : - - - - - - - - - - - - - - - - - - < 2 + + ",
"- - - : ; - : - - 6 > > > > > > > > , < < < , > > > > > @ = + + ",
"4 o o o o X       & * * * * * * * * = = = = = * * * * * = o + + ",
"+ + + + + + + + + + + + + + + + + + + + + + + + + + + + + + + + ",
"+ + + + + + + + + + + + + + + + + + + + + + + + + + + + + + + + "
};
