/* XPM */
static char * image_name[]={
"8 17 3 2",
"  	c #FFFFFF",
". 	c #FCFCFC",
"X 	c #BFBFBF",
"    .       X X ",
"          . X X ",
"  . .       X X ",
"            X X ",
"            X X ",
"            X X ",
"            X X ",
"  .         X X ",
"            X X ",
"        .   X X ",
".           X X ",
"  .         X X ",
"            X X ",
"            X X ",
"      .     X X ",
"X X X X X X X X ",
"X X X X X X X X "
};
