/* XPM */
static char * image_name[]={
"38 18 4 2",
"  	c #5DF370",
". 	c #BFBFBF",
"X 	c #73DE78",
"o 	c #509F69",
"                                                                        . . ",
"                                                                        . . ",
"                                                                        . . ",
"                                                                        . . ",
"                                                                        . . ",
"                                                                        . . ",
"                                                                        . . ",
"                                                                        . . ",
"                                                                        . . ",
"                                                                        . . ",
"                                                                        . . ",
"                                                                        . . ",
"                                                                        . . ",
"                                                                        . . ",
"X                                                                     X . . ",
"o                                                                     o . . ",
". . . . . . . . . . . . . . . . . . . . . . . . . . . . . . . . . . . . . . ",
". . . . . . . . . . . . . . . . . . . . . . . . . . . . . . . . . . . . . . "
};
