                 《Maya 白金手册 材质、灯光与渲染篇》

   本书是《火星人——Maya 白金手册》中的第3册，即材质、灯光与渲染篇，
内容包括Maya材质基础、材质编辑器、材质着色器、Textures程序纹理、Uti
lities工具节点、Light（灯光）、Rendering（渲染）等，使读者能对Maya
软件快速上手，并掌握一定实用的操作技术。

   第1章 Maya材质基础 主要讲解Maya材质、灯光与渲染的概念，以实例的
形式介绍玻璃材质效果的表现方法。

   第2章 材质编辑器 主要讲解Hypershade（材质编辑器）窗口中各菜单命令
、工具的使用方法及参数说明。

   第3章 材质着色器 主要讲解Hypershade（材质编辑器）窗口中Surface 
Shader（表面着色器）、Volumetric Shader（体积着色器）、Displacement
（置换）等常用着色器的使用方法。

   第4章 Textures程序纹理 主要讲解Hypershade（材质编辑器）窗口中
Texture（2D纹理）、3D Textures（3D纹理）和Env Textures（环境纹理）
等Maya基础纹理的应用。

   第5章 Utilities工具节点 主要讲解Hypershade（材质编辑器）窗口中
General Utilities（常规工具）、Color Utilities（颜色工具）和Switch
 Utilities（转换工具）等节点的应用。

   第6章 Light（灯光） 主要讲解Maya灯光类型、Maya 灯光基本属性、
6.3 Maya灯光的链接等内容。

   第7章 Rendering（渲染） 主要讲解Render View（渲染视图）窗口、
渲染类型、渲染设置通用面板、渲染的其他属性设置、渲染层等内容。

   第8章 渲染模块菜单 主要讲解Lighting/Shading（灯光/材质）、
Texturing（纹理）、Render（渲染）、Toon（卡通）、Stereo（立体）、
Paint Effects（画笔特效）、Fur（毛发）等菜单中各命令的应用及参数
说明。

   由于编写水平有限，书中如有不妥之处，恳请广大读者批评指正。如果
读者在阅读本书的过程中遇到问题，可以登录火星时代网站
http://www.hxsd.com 的“论坛”或者“火星图书”栏目提出问题，将会
有火星时代老师及热心的专业人士为您解答。我们的客服QQ 号码是896641381。

   在学习本书之前，请确保您的计算机已安装了Maya 2011。

   本套丛书适合使用Maya 2008、Maya 2009、Maya 2010、Maya 2011 
和Maya 2012 版本的读者朋友学习。

   火星时代祝您在学习的道路上百尺竿头，更进一步！



*******************************************************************************
  
北京火星时代科技有限公司出品
网址：http://www.hxsd.com

光盘策划：火星时代
文本编著：火星时代
软件开发：火星时代
出    版：人民邮电出版社
责任编辑信箱：guofaming@ptpress.com.cn
人民邮电出版社网址：http://www.ptpress.com.cn

    光盘应与配套手册共同使用，正版用户可以通过网站或电话获得相应的技术支持（仅指
本教学产品的使用问题，不包括应用软件的使用技术解答）。需要本套教材的读者请在当地
新华书店和科技书店购买，或者按上面提供的地址进行邮购。

*******************************************************************************
                            最新图书推荐

《ZBrush雕刻大师火星课堂》
《火星人—Maya 2011大风暴》
《ZBrush次世代角色建模火星课堂》


*******************************************************************************
                                      声 明

    如果您购买的产品没有配带相应的文字手册，说明是盗版产品，在使用时脱离了文字手
册将无法保障正常使用，我们也不承担盗版产品有可能对系统造成的损害。对于盗版产品的
用户我们不会提供任何技术支持，希望您能购买正版产品。


*******************************************************************************
                                    商标声明

   光盘中引用之商标与产品分别属于其原合法注册公司所有，纯属介绍之用，绝无任何侵
害之意。


*******************************************************************************
                                      注 意

     在本光盘中，DVD07和DVD08中的scenes场景文件中分别放置了稿件和视频的场景文件。     
     在学习本书之前，请确保您的计算机已安装了Maya2011。
     如果希望全屏观看视频教学，建议将显示器分辨率调整为1680×1048。
     为保证程序运行流畅，建议将随书配带的光盘资料拷贝到硬盘中再运行。


    为了方便读者学习，我们特将所有视频文件另转换为MP4格式，其能够支持市面上大部分
的移动播放设备（手机、Ipod、PSP等），所有的MP4文件分别放在DVD中，读者可以直接将其
拷贝至移动设备中播放。
