                           《Maya白金手册 动画》

    本书是《火星人——Maya 2011白金手册》中的第5册，即动画，主要内容包括动画控制、
Graph Editor（曲线编辑器）、Skeleton（骨骼）、Skin（蒙皮）、Muscle（肌肉）、
Animation Editors（动画编辑器），以及与动画相关的各个菜单命令。
  
    第1章 动画基础知识介绍 主要讲解动画原理、进行动画制作的准备工作，并通过人物行
走动画的制作来介绍角色动画制作的基本流程和方法。

    第2章 动画控制 主要讲解帧、帧率和帧率设置，时间滑块、时间范围滑块和播放控制器，
动画控制菜单，预览动画等内容。

    第3章 Graph Editor（曲线编辑器） 主要讲解曲线编辑器中各种动画工具的应用及参数说明。

    第4章 Animate（动画） 菜单 主要讲解Animate（动画）菜单中各命令的应用及参数说明。

    第5章 Geometry Cache（几何体缓存）菜单 主要讲解Geometry Cache（几何体缓存）菜单
中各命令的应用及参数说明。

    第6章 Create Deformers（创建变形器）菜单 主要讲解Create Deformers（创建变形器）
菜单中各个命令的应用及参数说明。

    第7章 Edit Deformers（编辑变形器）菜单 主要讲解Edit Deformers（编辑变形器）菜单
中各命令的应用及参数说明。

    第8章 Skeleton（骨骼）菜单 主要讲解Skeleton（骨骼） 菜单中各命令的应用及参数说明。

    第9章 Skin（蒙皮） 菜单 主要讲解Skin（蒙皮） 菜单中各命令的应用及参数说明。

    第10章 Constrain（约束） 菜单 主要讲解Constrain（约束） 菜单中各命令的应用及参数说明。

    第11 章 Character（角色） 菜单 主要讲解Character（角色） 菜单中各命令的应用及参数说明。

    第12 章 Muscle（肌肉） 菜单 主要讲解Muscle（肌肉） 菜单菜单中各命令的应用及参数说明。

    第13 章 Animation Layer（动画层） 编辑器 主要讲解Animation Layer（动画层） 中各
命令的应用及参数说明。

    第14 章 Animation Editors（动画编辑器） 主要讲解Animation Editors（动画编辑器）中
各命令工具的应用及参数说明。

    由于编写水平有限，书中如有不妥之处，恳请广大读者批评指正。如果读者在阅读本书的过
程中遇到问题，可以登录火星时代网站http://www.hxsd.com 的“论坛”或者“火星图书”
栏目提出问题，将会有火星时代老师及热心的专业人士为您解答。我们的客服QQ 号码是896641381。

    在学习本书之前，请确保您的计算机已安装了Maya 2011。

    本套丛书适合使用Maya 2008、Maya 2009、Maya 2010、Maya 2011 和Maya 2012 版本的读者
朋友学习。

    火星时代祝您在学习的道路上百尺竿头，更进一步！


*******************************************************************************
  
北京火星时代科技有限公司出品
网址：http://www.hxsd.com

光盘策划：火星时代
文本编著：火星时代
软件开发：火星时代
出    版：人民邮电出版社
责任编辑信箱：guofaming@ptpress.com.cn
人民邮电出版社网址：http://www.ptpress.com.cn

    光盘应与配套手册共同使用，正版用户可以通过网站或电话获得相应的技术支持（仅指
本教学产品的使用问题，不包括应用软件的使用技术解答）。需要本套教材的读者请在当地
新华书店和科技书店购买，或者按上面提供的地址进行邮购。

*******************************************************************************
                            最新图书推荐

《ZBrush雕刻大师火星课堂》
《火星人—Maya 2011大风暴》
《ZBrush次世代角色建模火星课堂》


*******************************************************************************
                                      声 明

    如果您购买的产品没有配带相应的文字手册，说明是盗版产品，在使用时脱离了文字手
册将无法保障正常使用，我们也不承担盗版产品有可能对系统造成的损害。对于盗版产品的
用户我们不会提供任何技术支持，希望您能购买正版产品。


*******************************************************************************
                                    商标声明

   光盘中引用之商标与产品分别属于其原合法注册公司所有，纯属介绍之用，绝无任何侵
害之意。


*******************************************************************************
                                      注 意

     在学习本书之前，请确保您的计算机已安装了Maya2011。
    如果希望全屏观看视频教学，建议将显示器分辨率调整为1680×1048。
   为保证程序运行流畅，建议将随书配带的光盘资料拷贝到硬盘中再运行。
